<?xml version="1.0" standalone="no"?>
<!DOCTYPE svg PUBLIC "-//W3C//DTD SVG 20010904//EN"
 "http://www.w3.org/TR/2001/REC-SVG-20010904/DTD/svg10.dtd">
<svg version="1.0" xmlns="http://www.w3.org/2000/svg"
 width="135.000000pt" height="134.000000pt" viewBox="0 0 135.000000 134.000000"
 preserveAspectRatio="xMidYMid meet">

<g transform="translate(0.000000,134.000000) scale(0.100000,-0.100000)"
fill="#000000" stroke="none">
<path d="M610 1334 c-191 -32 -310 -92 -424 -215 -234 -252 -233 -646 0 -899
187 -201 477 -269 729 -171 187 72 332 229 401 431 27 79 27 301 0 380 -39
116 -87 192 -175 280 -93 92 -182 145 -293 174 -60 15 -197 27 -238 20z m202
-45 c74 -14 163 -54 233 -103 305 -218 354 -659 104 -939 -239 -269 -666 -281
-918 -27 -77 78 -122 149 -159 252 -23 64 -26 88 -26 198 0 109 4 134 26 198
57 159 166 287 304 359 147 76 273 94 436 62z"/>
<path d="M644 1125 c-27 -41 -44 -114 -59 -255 -9 -74 -20 -173 -26 -219 l-12
-85 -88 -92 c-79 -84 -109 -131 -109 -176 0 -5 49 -8 108 -8 l108 0 11 -30 c9
-24 17 -30 42 -30 17 0 31 5 31 10 0 25 19 6 23 -22 l4 -33 1 33 c1 17 7 32
12 32 6 0 10 -4 10 -10 0 -5 15 -10 34 -10 30 0 35 4 41 30 l7 30 109 0 c97 0
109 2 109 18 -1 40 -45 109 -109 171 -38 36 -74 76 -80 88 -6 12 -22 118 -36
235 -26 229 -34 265 -65 316 -24 38 -44 41 -66 7z"/>
</g>
</svg>
