[
    {
        "id": 1,
        "level": "0",
        "test": "is is his his this this mist mist list list kiss kissis is"
    },
    {
        "id": 2,
        "level": "0",
        "test": "down after who well to much feet down head food sea book said only no only back"
    },
    {
        "id": 3,
        "level": "0",
        "test": "may sometimes that Indian learn father been add thought example these more leave last still second"
    },
    {
        "id": 4,
        "level": "1",
        "test": ""
    },
    {
        "id": 5,
        "level": "1",
        "test": ""
    },
    {
        "id": 6,
        "level": "1",
        "test": ""
    },
    {
        "id": 7,
        "level": "2",
        "test": ""
    },
    {
        "id": 8,
        "level": "2",
        "test": ""
    },
    {
        "id": 9,
        "level": "2",
        "test": ""
    },
    {
        "id": 10,
        "level": "3",
        "test": ""
    },
    {
        "id": 11,
        "level": "3",
        "test": ""
    },
    {
        "id": 12,
        "level": "3",
        "test": ""
    }

]
